newmtl mat_0-ido_gate_01_2A00.jpg
Ka 0.000000 0.000000 0.000000
Kd 0.698039 0.698039 0.698039
Ks 0.000000 0.000000 0.000000
d 1.000000
illum 2
Ns 9.84916
map_Kd ido_gate_01_2A00.jpg

newmtl mat_1-ido_hari_01_5400.jpg
Ka 0.000000 0.000000 0.000000
Kd 0.698039 0.698039 0.698039
Ks 0.000000 0.000000 0.000000
d 1.000000
illum 2
Ns 9.84916
map_Kd ido_hari_01_5400.jpg

newmtl mat_2-ido_kabe_02_7E00.jpg
Ka 0.000000 0.000000 0.000000
Kd 0.698039 0.698039 0.698039
Ks 0.000000 0.000000 0.000000
d 1.000000
illum 2
Ns 9.84916
map_Kd ido_kabe_02_7E00.jpg

newmtl mat_3-ido_gargoyle_01_0.jpg
Ka 0.000000 0.000000 0.000000
Kd 0.698039 0.698039 0.698039
Ks 0.000000 0.000000 0.000000
d 1.000000
illum 2
Ns 9.84916
map_Kd ido_gargoyle_01_0.jpg

newmtl mat_4-ido_obj_03_12600.jpg
Ka 0.000000 0.000000 0.000000
Kd 0.698039 0.698039 0.698039
Ks 0.000000 0.000000 0.000000
d 1.000000
illum 2
Ns 9.84916
map_Kd ido_obj_03_12600.jpg

newmtl mat_5-default-grey.jpg
Ka 0.000000 0.000000 0.000000
Kd 0.000000 0.000000 0.000000
Ks 0.000000 0.000000 0.000000
d 1.000000
illum 2
Ns 9.84916
map_Kd default-grey.jpg

